…
    birth_rates <- read_csv("Birth_rates.csv")
    death_rates <- read_csv("Death_rates.csv")

    birth_rates <- birth_rates %>%
      gather(`1950-1955`:`2010-2015`, key = "year", value = "birth_rate")

    death_rates <- death_rates %>%
      gather(`1950-1955`:`2010-2015`, key = "year", value = "death_rate")

    demographic_transition <- birth_rates %>%
      inner_join(death_rates)

    demographic_transition

    ## # A tibble: 3,133 x 5
    ##    Country                             `Country … year     birth_… death_…
    ##    <chr>                                    <int> <chr>      <dbl>   <dbl>
    ##  1 WORLD                                      900 1950-19…    36.9    19.1
    ##  2 More developed regions                     901 1950-19…    22.3    10.6
    ##  3 Less developed regions                     902 1950-19…    43.6    23.0
    ##  4 Least developed countries                  941 1950-19…    48.3    28.1
    ##  5 Less developed regions, excluding …        934 1950-19…    43.0    22.4
    ##  6 Less developed regions, excluding …        948 1950-19…    44.4    23.4
    ##  7 High-income countries                     1503 1950-19…    22.5    10.6
    ##  8 Middle-income countries                   1517 1950-19…    41.6    21.6
    ##  9 Upper-middle-income countries             1502 1950-19…    40.1    19.4
    ## 10 Lower-middle-income countries             1501 1950-19…    43.4    24.3
    ## # ... with 3,123 more rows
…
    get_year <- function(years) {
      return(ceiling(mean(as.numeric(str_split(years, "-")[[1]]))))
    }

    demographic_transition <- demographic_transition %>%
      mutate(
        year = map_dbl(year, get_year)
      )

    demographic_transition

    ## # A tibble: 3,133 x 5
    ##    Country                               `Country c…  year birth_… death_…
    ##    <chr>                                       <int> <dbl>   <dbl>   <dbl>
    ##  1 WORLD                                         900  1953    36.9    19.1
    ##  2 More developed regions                        901  1953    22.3    10.6
    ##  3 Less developed regions                        902  1953    43.6    23.0
    ##  4 Least developed countries                     941  1953    48.3    28.1
    ##  5 Less developed regions, excluding le…         934  1953    43.0    22.4
    ##  6 Less developed regions, excluding Ch…         948  1953    44.4    23.4
    ##  7 High-income countries                        1503  1953    22.5    10.6
    ##  8 Middle-income countries                      1517  1953    41.6    21.6
    ##  9 Upper-middle-income countries                1502  1953    40.1    19.4
    ## 10 Lower-middle-income countries                1501  1953    43.4    24.3
    ## # ... with 3,123 more rows
…
